{
  "base_url": "/user/liu_qishu-mt-15-tp-1-91atvm1v/",
  "hostname": "0.0.0.0",
  "notebook_dir": "/home/jovyan",
  "password": false,
  "pid": 25,
  "port": 8888,
  "secure": false,
  "sock": "",
  "token": "L42jT0KRQ6WYfcYebM_KSA",
  "url": "http://0.0.0.0:8888/user/liu_qishu-mt-15-tp-1-91atvm1v/"
}